{
  "hotelId": "#valueof($.Id)",
  "destinationId": "#valueof($.DestinationId)",
  "name": "#valueof($.Name)",
  "location": {
    "latitude": "#valueof($.Latitude)",
    "longitude": "#valueof($.Longitude)",
    "address": "#valueof($.Address)",
    "city": "#valueof($.City)",
    "country": "#valueof($.Country)",
    "postalCode": "#valueof($.PostalCode)"
  },
  "description": "#valueof($.Description)",
  "detail": null,
  "information": null,
  "amenities": {
    "general": "#valueof($.Facilities)",
    "room": []
  },
  "images": {
    "rooms": [],
    "site": [],
    "amenities": []
  },
  "bookingConditions": []
}